…
## Make Rare Ranked Vector

``` r
rare_tib <- rare %>% mutate(neglog10q = -log10(qval)) %>% dplyr::select(gene_id, neglog10q) %>% arrange(desc(neglog10q))
rare_tib 
```

    ## # A tibble: 17,345 × 2
    ##    gene_id         neglog10q
    ##    <chr>               <dbl>
    ##  1 ENSG00000100888    Inf   
    ##  2 ENSG00000136531    Inf   
    ##  3 ENSG00000197283    Inf   
    ##  4 ENSG00000101126     14.1 
    ##  5 ENSG00000114861     11.8 
    ##  6 ENSG00000143442      9.96
    ##  7 ENSG00000049618      9.59
    ##  8 ENSG00000110066      9.26
    ##  9 ENSG00000157540      9.09
    ## 10 ENSG00000157103      8.72
    ## # ℹ 17,335 more rows
…
``` r
variant_path_NES_padj <- all_paths_overlap %>%
  dplyr::select(variant, pathway, NES, padj) %>%
  pivot_wider(
    names_from = variant,
    values_from = c(NES, padj),
    names_glue = "{variant}_{.value}"
  )

variant_path_NES_padj
```

    ## # A tibble: 182 × 5
    ##    pathway                             rare_NES common_NES rare_padj common_padj
    ##    <chr>                                  <dbl>      <dbl>     <dbl>       <dbl>
    ##  1 GOBP_NEURON_APOPTOTIC_PROCESS           2.30      1.19     0.0779       0.458
    ##  2 GOBP_NEURON_DEATH                       2.21      1.34     0.0779       0.155
    ##  3 GOBP_REGULATION_OF_LONG_TERM_NEURO…     2.48      1.18     0.0779       0.537
    ##  4 GOBP_NEGATIVE_REGULATION_OF_NEURON…     2.25      0.513    0.0779       0.993
    ##  5 GOBP_AXON_ENSHEATHMENT_IN_CENTRAL_…     2.12      1.04     0.0779       0.693
    ##  6 GOBP_POSITIVE_REGULATION_OF_EXCITA…     2.30     -1.02     0.0779       0.694
    ##  7 GOBP_REGULATION_OF_NEURONAL_SYNAPT…     2.49      1.24     0.0779       0.499
    ##  8 GOBP_MAINTENANCE_OF_SYNAPSE_STRUCT…     2.51      1.52     0.0779       0.331
    ##  9 GOBP_POSTSYNAPTIC_SPECIALIZATION_A…     2.36      0.532    0.0779       0.993
    ## 10 GOBP_CHEMICAL_SYNAPTIC_TRANSMISSIO…     2.03      0.884    0.0779       0.857
    ## # ℹ 172 more rows

## Calculate Unfiltered MAD

``` r
variant_path_NES_padj <- variant_path_NES_padj %>% mutate(
  NES_diff = rare_NES - common_NES, 
  MAD_unfilt = mad(NES_diff),
  median_NES_diff = median(NES_diff)) %>% relocate(NES_diff, .before = MAD_unfilt)
variant_path_NES_padj
```

    ## # A tibble: 182 × 8
    ##    pathway         rare_NES common_NES rare_padj common_padj NES_diff MAD_unfilt
    ##    <chr>              <dbl>      <dbl>     <dbl>       <dbl>    <dbl>      <dbl>
    ##  1 GOBP_NEURON_AP…     2.30      1.19     0.0779       0.458    1.11       0.580
    ##  2 GOBP_NEURON_DE…     2.21      1.34     0.0779       0.155    0.875      0.580
    ##  3 GOBP_REGULATIO…     2.48      1.18     0.0779       0.537    1.31       0.580
    ##  4 GOBP_NEGATIVE_…     2.25      0.513    0.0779       0.993    1.73       0.580
    ##  5 GOBP_AXON_ENSH…     2.12      1.04     0.0779       0.693    1.08       0.580
    ##  6 GOBP_POSITIVE_…     2.30     -1.02     0.0779       0.694    3.32       0.580
    ##  7 GOBP_REGULATIO…     2.49      1.24     0.0779       0.499    1.25       0.580
    ##  8 GOBP_MAINTENAN…     2.51      1.52     0.0779       0.331    0.995      0.580
    ##  9 GOBP_POSTSYNAP…     2.36      0.532    0.0779       0.993    1.83       0.580
    ## 10 GOBP_CHEMICAL_…     2.03      0.884    0.0779       0.857    1.14       0.580
    ## # ℹ 172 more rows
    ## # ℹ 1 more variable: median_NES_diff <dbl>
…
``` r
classify_paths <- variant_path_NES_padj %>% mutate(
  converge_diverge =
    case_when(
      (NES_diff > 1.33 | NES_diff < 0.17) ~ "divergent",
      (NES_diff <= 1.33 & NES_diff >= 0.17) ~ "convergent"
    )
)
classify_paths
```

    ## # A tibble: 182 × 9
    ##    pathway         rare_NES common_NES rare_padj common_padj NES_diff MAD_unfilt
    ##    <chr>              <dbl>      <dbl>     <dbl>       <dbl>    <dbl>      <dbl>
    ##  1 GOBP_NEURON_AP…     2.30      1.19     0.0779       0.458    1.11       0.580
    ##  2 GOBP_NEURON_DE…     2.21      1.34     0.0779       0.155    0.875      0.580
    ##  3 GOBP_REGULATIO…     2.48      1.18     0.0779       0.537    1.31       0.580
    ##  4 GOBP_NEGATIVE_…     2.25      0.513    0.0779       0.993    1.73       0.580
    ##  5 GOBP_AXON_ENSH…     2.12      1.04     0.0779       0.693    1.08       0.580
    ##  6 GOBP_POSITIVE_…     2.30     -1.02     0.0779       0.694    3.32       0.580
    ##  7 GOBP_REGULATIO…     2.49      1.24     0.0779       0.499    1.25       0.580
    ##  8 GOBP_MAINTENAN…     2.51      1.52     0.0779       0.331    0.995      0.580
    ##  9 GOBP_POSTSYNAP…     2.36      0.532    0.0779       0.993    1.83       0.580
    ## 10 GOBP_CHEMICAL_…     2.03      0.884    0.0779       0.857    1.14       0.580
    ## # ℹ 172 more rows
    ## # ℹ 2 more variables: median_NES_diff <dbl>, converge_diverge <chr>

``` r
divergent_unfilt <- classify_paths %>% filter(converge_diverge == "divergent")
divergent_unfilt
```

    ## # A tibble: 58 × 9
    ##    pathway         rare_NES common_NES rare_padj common_padj NES_diff MAD_unfilt
    ##    <chr>              <dbl>      <dbl>     <dbl>       <dbl>    <dbl>      <dbl>
    ##  1 GOBP_NEGATIVE_…     2.25      0.513    0.0779       0.993     1.73      0.580
    ##  2 GOBP_POSITIVE_…     2.30     -1.02     0.0779       0.694     3.32      0.580
    ##  3 GOBP_POSTSYNAP…     2.36      0.532    0.0779       0.993     1.83      0.580
    ##  4 GOBP_NEURONAL_…     2.50      0.929    0.0779       0.794     1.57      0.580
    ##  5 GOBP_REGULATIO…     2.28      0.657    0.0779       0.993     1.62      0.580
    ##  6 GOBP_POSITIVE_…     2.20      0.720    0.0779       0.967     1.48      0.580
    ##  7 GOBP_MODULATIO…     2.27     -1.08     0.0779       0.595     3.34      0.580
    ##  8 GOBP_POSTSYNAP…     2.33      0.717    0.0779       0.948     1.61      0.580
    ##  9 GOBP_POSITIVE_…     2.29      0.747    0.0779       0.937     1.55      0.580
    ## 10 GOBP_POSITIVE_…     2.17      0.835    0.0779       0.873     1.33      0.580
    ## # ℹ 48 more rows
    ## # ℹ 2 more variables: median_NES_diff <dbl>, converge_diverge <chr>

``` r
nrow(divergent_unfilt)
```

    ## [1] 58

``` r
convergent_unfilt <- classify_paths %>% filter(converge_diverge == "convergent")
convergent_unfilt
```

    ## # A tibble: 124 × 9
    ##    pathway         rare_NES common_NES rare_padj common_padj NES_diff MAD_unfilt
    ##    <chr>              <dbl>      <dbl>     <dbl>       <dbl>    <dbl>      <dbl>
    ##  1 GOBP_NEURON_AP…     2.30      1.19     0.0779       0.458    1.11       0.580
    ##  2 GOBP_NEURON_DE…     2.21      1.34     0.0779       0.155    0.875      0.580
    ##  3 GOBP_REGULATIO…     2.48      1.18     0.0779       0.537    1.31       0.580
    ##  4 GOBP_AXON_ENSH…     2.12      1.04     0.0779       0.693    1.08       0.580
    ##  5 GOBP_REGULATIO…     2.49      1.24     0.0779       0.499    1.25       0.580
    ##  6 GOBP_MAINTENAN…     2.51      1.52     0.0779       0.331    0.995      0.580
    ##  7 GOBP_CHEMICAL_…     2.03      0.884    0.0779       0.857    1.14       0.580
    ##  8 GOBP_FOREBRAIN…     2.12      1.30     0.0779       0.421    0.820      0.580
    ##  9 GOBP_NEGATIVE_…     2.11      0.825    0.0779       0.873    1.28       0.580
    ## 10 GOBP_NEURON_PR…     2.14      1.33     0.0779       0.381    0.817      0.580
    ## # ℹ 114 more rows
    ## # ℹ 2 more variables: median_NES_diff <dbl>, converge_diverge <chr>
…
