…
nrow(anno_paths) # 1422 individual gene-pathway groupings
```

    ## [1] 1422

``` r
sfari_data_rename <- sfari_data %>%
  dplyr::rename(gene = gene.symbol)

cross_ref_inner <- anno_paths %>%
  dplyr::inner_join(sfari_data_rename, by = "gene")
cross_ref_inner
```

    ## # A tibble: 470 × 9
    ##    gene    pathway variant   padj converge_diverge percent_constrained gene.name
    ##    <chr>   <chr>   <chr>    <dbl> <chr>                          <dbl> <chr>    
    ##  1 SCN2A   GOBP_N… rare    0.0845 divergent                       86.7 sodium c…
    ##  2 SYNGAP1 GOBP_N… rare    0.0845 divergent                       86.7 synaptic…
    ##  3 ADNP    GOBP_N… rare    0.0845 divergent                       86.7 Activity…
    ##  4 GRIN2B  GOBP_N… rare    0.0845 divergent                       86.7 glutamat…
    ##  5 CTNNB1  GOBP_N… rare    0.0845 divergent                       86.7 catenin …
    ##  6 STXBP1  GOBP_N… rare    0.0845 divergent                       86.7 Syntaxin…
    ##  7 GABRB2  GOBP_N… rare    0.0845 divergent                       86.7 gamma-am…
    ##  8 CORO1A  GOBP_N… rare    0.0845 divergent                       86.7 coronin …
    ##  9 EPHB1   GOBP_N… rare    0.0845 divergent                       86.7 EPH rece…
    ## 10 NF1     GOBP_N… rare    0.0845 divergent                       86.7 neurofib…
    ## # ℹ 460 more rows
    ## # ℹ 2 more variables: genetic.category <chr>, gene.score <int>

``` r
nrow(cross_ref_inner) # 470 individual gene-pathway groupings, 33% match with SFARI
```

    ## [1] 470

``` r
cross_ref_outer <- anno_paths %>%
  dplyr::left_join(sfari_data_rename, by = "gene")
cross_ref_outer %>% filter(is.na(gene.name)) # perhaps genes of future interest?
```

    ## # A tibble: 952 × 9
    ##    gene    pathway variant   padj converge_diverge percent_constrained gene.name
    ##    <chr>   <chr>   <chr>    <dbl> <chr>                          <dbl> <chr>    
    ##  1 THRB    GOBP_N… rare    0.0845 divergent                       86.7 <NA>     
    ##  2 MAP2K7  GOBP_N… rare    0.0845 divergent                       86.7 <NA>     
    ##  3 HSP90A… GOBP_N… rare    0.0845 divergent                       86.7 <NA>     
    ##  4 GSK3B   GOBP_N… rare    0.0845 divergent                       86.7 <NA>     
    ##  5 UBB     GOBP_N… rare    0.0845 divergent                       86.7 <NA>     
    ##  6 MAP2K7  GOBP_P… rare    0.0845 convergent                      58.3 <NA>     
    ##  7 GSK3B   GOBP_P… rare    0.0845 convergent                      58.3 <NA>     
    ##  8 SRPK2   GOBP_P… rare    0.0845 convergent                      58.3 <NA>     
    ##  9 FCGR2B  GOBP_P… rare    0.0845 convergent                      58.3 <NA>     
    ## 10 ATF4    GOBP_P… rare    0.0845 convergent                      58.3 <NA>     
    ## # ℹ 942 more rows
    ## # ℹ 2 more variables: genetic.category <chr>, gene.score <int>
…
``` r
#how often genes appear (hub genes)
cross_ref_inner %>% count(gene, sort = TRUE)
```

    ## # A tibble: 183 × 2
    ##    gene       n
    ##    <chr>  <int>
    ##  1 CTNNB1    12
    ##  2 EPHB2     11
    ##  3 EPHB1     10
    ##  4 NF1       10
    ##  5 PTEN      10
    ##  6 SYNJ1     10
    ##  7 PPFIA3     9
    ##  8 UNC13A     9
    ##  9 ADCY1      8
    ## 10 CADPS      8
    ## # ℹ 173 more rows
