…
    ## [1] 9112386

``` r
#autosomes only?
common %>% distinct(CHR) %>% nrow() #22 chromosomes
```

    ## [1] 22

``` r
common %>% distinct(CHR) %>% arrange(CHR) #each present
```

    ## # A tibble: 22 × 1
    ##      CHR
    ##    <dbl>
    ##  1     1
    ##  2     2
    ##  3     3
    ##  4     4
    ##  5     5
    ##  6     6
    ##  7     7
    ##  8     8
    ##  9     9
    ## 10    10
    ## # ℹ 12 more rows
…
## Indel Removal

``` r
common_clean <- common %>%
  filter(nchar(A1) == 1, nchar(A2) == 1)
nrow(common_clean) #8058797 single nucleotide SNPs
```

    ## [1] 8058797

``` r
common_clean
```

    ## # A tibble: 8,058,797 × 9
    ##      CHR SNP               BP A1    A2     INFO    OR     SE       P
    ##    <dbl> <chr>          <dbl> <chr> <chr> <dbl> <dbl>  <dbl>   <dbl>
    ##  1     8 rs62513865 101592213 T     C     0.949 1.01  0.027  0.809  
    ##  2     8 rs79643588 106973048 A     G     0.997 1.02  0.024  0.461  
    ##  3     8 rs17396518 108690829 T     G     0.987 0.961 0.014  0.00465
    ##  4     8 rs983166   108681675 A     C     0.998 0.980 0.0139 0.145  
    ##  5     8 rs28842593 103044620 T     C     0.857 0.996 0.0203 0.842  
    ##  6     8 rs7014597  104152280 C     G     0.993 1.02  0.0182 0.293  
    ##  7     8 rs3134156  100479917 T     C     0.998 0.982 0.019  0.353  
    ##  8     8 rs6980591  103144592 A     C     0.997 1.04  0.0167 0.00839
    ##  9     8 rs72670434 108166508 A     T     0.985 1.01  0.0147 0.390  
    ## 10     8 rs10955343 105201080 T     C     1     0.994 0.0144 0.659  
    ## # ℹ 8,058,787 more rows

## MAGMA Formatting

``` r
common_MAGMA <- common_clean %>%
  mutate(NOBS = INFO*46350) %>%  #Total sample size from Grove et al. 2019 (n = 46,350, from Fig. 2 caption) using R-squared value for per-SNP N-effect
  dplyr::select(SNP, CHR, BP, P, NOBS)

common_MAGMA
```

    ## # A tibble: 8,058,797 × 5
    ##    SNP          CHR        BP       P   NOBS
    ##    <chr>      <dbl>     <dbl>   <dbl>  <dbl>
    ##  1 rs62513865     8 101592213 0.809   43986.
    ##  2 rs79643588     8 106973048 0.461   46211.
    ##  3 rs17396518     8 108690829 0.00465 45747.
    ##  4 rs983166       8 108681675 0.145   46257.
    ##  5 rs28842593     8 103044620 0.842   39722.
    ##  6 rs7014597      8 104152280 0.293   46026.
    ##  7 rs3134156      8 100479917 0.353   46257.
    ##  8 rs6980591      8 103144592 0.00839 46211.
    ##  9 rs72670434     8 108166508 0.390   45655.
    ## 10 rs10955343     8 105201080 0.659   46350 
    ## # ℹ 8,058,787 more rows
…
